Fortune 500 Analysis: What Makes a Company Successful?
…
The following code reads the data from the Microsoft excel file into a dataframe, a two-dimensional table. The excel file has some formatting and extraneous information in the first few rows, so we use the skip = 6 option to skip over these irrelevant rows and start reading information from the seventh line where the actual data begins. The New Names:  problem just signifies that some columns did not have any headers or column names so it auto-filled header names for these columns.

fortune_500_data <- read_excel("C:/Users/Alan Cheng/Desktop/Fortune 500 US List 2019_Someka V1.xlsx", skip = 6)

## New names:
## * `` -> ...1
## * `` -> ...2
## * `` -> ...4
## * `` -> ...6
## * `` -> ...7
## * ... and 3 more problems

fortune_500_data

## # A tibble: 501 x 10
##    ...1  ...2  `Company Info` ...4  `KEY FINANCIALS` ...6  ...7  ...8  ...9 
##    <chr> <chr> <chr>          <chr> <chr>            <chr> <chr> <chr> <chr>
##  1 Rank  Comp~ Number of Emp~ "Cha~ "Revenues\r\n($~ "Rev~ "Pro~ "Pro~ "Ass~
##  2 1     Walm~ 2200000        "-"   "514405"         "2.7~ "667~ "-0.~ "219~
##  3 2     Exxo~ 71000          "-"   "290212"         "0.1~ "208~ "5.7~ "346~
##  4 3     Apple 132000         "1"   "265595"         "0.1~ "595~ "0.2~ "365~
##  5 4     Berk~ 389000         "-1"  "247837"         "2.4~ "402~ "-0.~ "707~
##  6 5     Amaz~ 647500         "3"   "232887"         "0.3~ "100~ "2.3~ "162~
##  7 6     Unit~ 300000         "-1"  "226247"         "0.1~ "119~ "0.1~ "152~
##  8 7     McKe~ 68000          "-1"  "208357"         "4.9~ "67"  "-0.~ "603~
##  9 8     CVS ~ 295000         "-1"  "194579"         "5.2~ "-59~ "-1.~ "196~
## 10 9     AT&T  268220         "-"   "170756"         "6.4~ "193~ "-0.~ "531~
## # ... with 491 more rows, and 1 more variable: ...10 <chr>
…
# Remove the first row of the dataframe
fortune_500_data <- fortune_500_data[-1,]
fortune_500_data

## # A tibble: 500 x 10
##    rank  company_name num_employees rank_change revenue revenue_change profit
##    <chr> <chr>        <chr>         <chr>       <chr>   <chr>          <chr> 
##  1 1     Walmart      2200000       -           514405  2.79999999999~ 6670  
##  2 2     Exxon Mobil  71000         -           290212  0.188          20840 
##  3 3     Apple        132000        1           265595  0.159          59531 
##  4 4     Berkshire H~ 389000        -1          247837  2.4E-2         4021  
##  5 5     Amazon.com   647500        3           232887  0.309          10073 
##  6 6     UnitedHealt~ 300000        -1          226247  0.125          11986 
##  7 7     McKesson     68000         -1          208357  4.90000000000~ 67    
##  8 8     CVS Health   295000        -1          194579  5.29999999999~ -594  
##  9 9     AT&T         268220        -           170756  6.40000000000~ 19370 
## 10 10    Amerisource~ 20500         2           167939~ 9.69999999999~ 1658.4
## # ... with 490 more rows, and 3 more variables: profit_change <chr>,
## #   assets <chr>, market_value <chr>
…
# Convert the rank, num_employees, rank_change, revenue, revenue_change, profit, profit_change, assets, and market_value columns to numerical values.
fortune_500_data$rank <- as.numeric(fortune_500_data$rank)
fortune_500_data$num_employees <- as.numeric(fortune_500_data$num_employees)
fortune_500_data$rank_change <- suppressWarnings(as.numeric(fortune_500_data$rank_change))
fortune_500_data$revenue <- as.numeric(fortune_500_data$revenue)
fortune_500_data$revenue_change <- suppressWarnings(as.numeric(fortune_500_data$revenue_change))
fortune_500_data$profit <- as.numeric(fortune_500_data$profit)
fortune_500_data$profit_change <- suppressWarnings(as.numeric(fortune_500_data$profit_change))
fortune_500_data$assets <- as.numeric(fortune_500_data$assets)
fortune_500_data$market_value <- suppressWarnings(as.numeric(fortune_500_data$market_value))

fortune_500_data

## # A tibble: 500 x 10
##     rank company_name num_employees rank_change revenue revenue_change profit
##    <dbl> <chr>                <dbl>       <dbl>   <dbl>          <dbl>  <dbl>
##  1     1 Walmart            2200000          NA 514405          0.0280  6670 
##  2     2 Exxon Mobil          71000          NA 290212          0.188  20840 
##  3     3 Apple               132000           1 265595          0.159  59531 
##  4     4 Berkshire H~        389000          -1 247837          0.024   4021 
##  5     5 Amazon.com          647500           3 232887          0.309  10073 
##  6     6 UnitedHealt~        300000          -1 226247          0.125  11986 
##  7     7 McKesson             68000          -1 208357          0.049     67 
##  8     8 CVS Health          295000          -1 194579          0.053   -594 
##  9     9 AT&T                268220          NA 170756          0.064  19370 
## 10    10 Amerisource~         20500           2 167940.         0.0970  1658.
## # ... with 490 more rows, and 3 more variables: profit_change <dbl>,
## #   assets <dbl>, market_value <dbl>

Looking at the dataframe, we can see there are rows with NA values for certain attributes. The NA values for rank_change signify no change in ranking from the previous year, so we can replace all of those NA values with 0. However, the other NA values, such as those in the profit_change and market_value columns, cannot be replaced with reasonable values. As such, we can remove rows with NA values for profit_change or market_value since they will not be useful for our analysis.

# Replace NA values in rank_change column with 0
fortune_500_data$rank_change <- replace_na(fortune_500_data$rank_change, 0)

# Remove all rows with NA values
fortune_500_data <- na.omit(fortune_500_data)

fortune_500_data

## # A tibble: 421 x 10
##     rank company_name num_employees rank_change revenue revenue_change profit
##    <dbl> <chr>                <dbl>       <dbl>   <dbl>          <dbl>  <dbl>
##  1     1 Walmart            2200000           0 514405          0.0280  6670 
##  2     2 Exxon Mobil          71000           0 290212          0.188  20840 
##  3     3 Apple               132000           1 265595          0.159  59531 
##  4     4 Berkshire H~        389000          -1 247837          0.024   4021 
##  5     5 Amazon.com          647500           3 232887          0.309  10073 
##  6     6 UnitedHealt~        300000          -1 226247          0.125  11986 
##  7     7 McKesson             68000          -1 208357          0.049     67 
##  8     8 CVS Health          295000          -1 194579          0.053   -594 
##  9     9 AT&T                268220           0 170756          0.064  19370 
## 10    10 Amerisource~         20500           2 167940.         0.0970  1658.
## # ... with 411 more rows, and 3 more variables: profit_change <dbl>,
## #   assets <dbl>, market_value <dbl>
…
These plots show how skewed the dataset is - the red lines in the Tukey plot show that a large portion of data representing higher revenues is well beyond these lines and thus would be considered outliers. Companies such as Walmart made so much in revenue that trying to analyze any trends with them in the dataset will likely make our analyses wildly innacurate. The Standard Deviation Plot shows that many of the Fortune 500 companies are several standard deviations away from the mean, Walmart lying over TEN standard deviations away. Thus, we can also conclude how the more properous companies have much significantly higher revenues than most other companies. For our basic analysis in this section, we have decided to disregard data outside of 3 standard deviations as over 99% of data would be normally expected to fall within those bounds. In this case, companies with a value over 167653.8 for their revenue will not be included in the charts below.

rev_cutoff = mean(fortune_500_data$revenue) + 3 * sd(fortune_500_data$revenue)
fort_no_ol <- fortune_500_data
fort_no_ol$fixed_rev <-
  ifelse(fortune_500_data$revenue>rev_cutoff, NA, fortune_500_data$revenue)
fort_no_ol <- na.omit(fort_no_ol)
fort_no_ol

## # A tibble: 411 x 11
##     rank company_name num_employees rank_change revenue revenue_change profit
##    <dbl> <chr>                <dbl>       <dbl>   <dbl>          <dbl>  <dbl>
##  1    11 Chevron              48600           2  166339         0.236   14824
##  2    12 Ford Motor          199000          -1  160338         0.023    3677
##  3    14 Costco Whol~        194000           1  141576         0.0970   3134
##  4    15 Alphabet             98771           7  136819         0.234   30736
##  5    16 Cardinal He~         50200          -2  136809         0.053     256
##  6    17 Walgreens B~        299000           2  131537         0.113    5024
##  7    18 JPMorgan Ch~        256105           2  131412         0.154   32474
##  8    19 Verizon Com~        144500          -3  130863         0.038   15528
##  9    20 Kroger              453000          -3  121162        -0.012    3110
## 10    22 Fannie Mae            7400          -1  120101         0.069   15959
## # ... with 401 more rows, and 4 more variables: profit_change <dbl>,
## #   assets <dbl>, market_value <dbl>, fixed_rev <dbl>
…
